Node ID: 0
Total Count of Missing 8's are 1

Node ID: 2
Total Count of Missing 8's are 2

Node ID: 810000040
Total Count of Missing 8's are 2

Node ID: 810000041
Total Count of Missing 8's are 2

Node ID: 810000042
Total Count of Missing 8's are 2

Node ID: 810000043
Total Count of Missing 8's are 2

Node ID: 810000060
Total Count of Missing 8's are 2

Node ID: 810000061
Total Count of Missing 8's are 2

Node ID: 810000062
Total Count of Missing 8's are 2

Node ID: 810000063
Total Count of Missing 8's are 2

Node ID: 810000080
Total Count of Missing 8's are 3

Node ID: 810000081
Total Count of Missing 8's are 4

Node ID: 810000082
Total Count of Missing 8's are 4

Node ID: 810000083
Total Count of Missing 8's are 4

Node ID: 810000100
Total Count of Missing 8's are 4

Node ID: 810000101
Total Count of Missing 8's are 4

Node ID: 810000102
Total Count of Missing 8's are 4

Node ID: 810000120
Total Count of Missing 8's are 4

Node ID: 810000123
Total Count of Missing 8's are 4

Node ID: 810000141
Total Count of Missing 8's are 4

Node ID: 810000142
Total Count of Missing 8's are 4

Node ID: 810000160
Total Count of Missing 8's are 5

Node ID: 810000161
Total Count of Missing 8's are 6

Node ID: 810000162
Total Count of Missing 8's are 6

Node ID: 810000163
Total Count of Missing 8's are 6

Node ID: 810000180
Total Count of Missing 8's are 6

Node ID: 810000181
Total Count of Missing 8's are 7

Node ID: 810000182
Total Count of Missing 8's are 7

Node ID: 810000200
Total Count of Missing 8's are 7

Node ID: 810000220
Total Count of Missing 8's are 7

Node ID: 810000222
Total Count of Missing 8's are 7

Node ID: 810000223
Total Count of Missing 8's are 7

Node ID: 810000240
Total Count of Missing 8's are 7

Node ID: 810000241
Total Count of Missing 8's are 7

Node ID: 810000242
Total Count of Missing 8's are 7

Node ID: 810000243
Total Count of Missing 8's are 7

Node ID: 810000260
Total Count of Missing 8's are 8

Node ID: 810000261
Total Count of Missing 8's are 9

Node ID: 810000264
Total Count of Missing 8's are 9

Node ID: 810000265
Total Count of Missing 8's are 9

Node ID: 810000280
Total Count of Missing 8's are 10

Node ID: 810000281
Total Count of Missing 8's are 11

Node ID: 810000282
Total Count of Missing 8's are 11

Node ID: 810000283
Total Count of Missing 8's are 11

Node ID: 810000300
Total Count of Missing 8's are 12

Node ID: 810000301
Total Count of Missing 8's are 13

Node ID: 810000302
Total Count of Missing 8's are 13

Node ID: 810000303
Total Count of Missing 8's are 13

Node ID: 810000320
Total Count of Missing 8's are 13

Node ID: 810000323
Total Count of Missing 8's are 13

Node ID: 810000341
Total Count of Missing 8's are 13

Node ID: 810000342
Total Count of Missing 8's are 13

Node ID: 810000360
Total Count of Missing 8's are 13

Node ID: 810000380
Total Count of Missing 8's are 13

Node ID: 810000381
Total Count of Missing 8's are 14

Node ID: 810000382
Total Count of Missing 8's are 15

Node ID: 810000383
Total Count of Missing 8's are 16

Node ID: 810000384
Total Count of Missing 8's are 16

Node ID: 810000385
Total Count of Missing 8's are 16

Node ID: 810000400
Total Count of Missing 8's are 17

Node ID: 810000401
Total Count of Missing 8's are 18

Node ID: 810000402
Total Count of Missing 8's are 18

Node ID: 810000403
Total Count of Missing 8's are 18

Node ID: 810000420
Total Count of Missing 8's are 18

Node ID: 810000421
Total Count of Missing 8's are 18

Node ID: 810000423
Total Count of Missing 8's are 18

Node ID: 810000441
Total Count of Missing 8's are 18

Node ID: 810000442
Total Count of Missing 8's are 18

Node ID: 810000443
Total Count of Missing 8's are 18

Node ID: 810000460
Total Count of Missing 8's are 19

Node ID: 810000461
Total Count of Missing 8's are 20

Node ID: 810000462
Total Count of Missing 8's are 20

Node ID: 810000463
Total Count of Missing 8's are 20

Node ID: 810000480
Total Count of Missing 8's are 20

Node ID: 810000481
Total Count of Missing 8's are 20

Node ID: 810000482
Total Count of Missing 8's are 20

Node ID: 810000483
Total Count of Missing 8's are 21

Node ID: 810000500
Total Count of Missing 8's are 21

Node ID: 810000501
Total Count of Missing 8's are 21

Node ID: 810000502
Total Count of Missing 8's are 21

Node ID: 810000503
Total Count of Missing 8's are 21

Node ID: 810000520
Total Count of Missing 8's are 21

Node ID: 810000521
Total Count of Missing 8's are 21

Node ID: 810000522
Total Count of Missing 8's are 21

Node ID: 810000540
Total Count of Missing 8's are 21

Node ID: 810000541
Total Count of Missing 8's are 21

Node ID: 810000542
Total Count of Missing 8's are 21

Node ID: 810000560
Total Count of Missing 8's are 21

Node ID: 810000562
Total Count of Missing 8's are 21

Node ID: 810000563
Total Count of Missing 8's are 21

Node ID: 810000580
Total Count of Missing 8's are 21

Node ID: 810000581
Total Count of Missing 8's are 21

Node ID: 810000582
Total Count of Missing 8's are 21

Node ID: 810000661
Total Count of Missing 8's are 21

Node ID: 810000662
Total Count of Missing 8's are 21

Node ID: 810000663
Total Count of Missing 8's are 21

Node ID: 810000680
Total Count of Missing 8's are 21

Node ID: 810000681
Total Count of Missing 8's are 22

Node ID: 810000682
Total Count of Missing 8's are 22

Node ID: 810000700
Total Count of Missing 8's are 22

Node ID: 810000701
Total Count of Missing 8's are 22

Node ID: 810000702
Total Count of Missing 8's are 22

Node ID: 810000703
Total Count of Missing 8's are 22

Node ID: 810000720
Total Count of Missing 8's are 22

Node ID: 810000721
Total Count of Missing 8's are 22

Node ID: 810000722
Total Count of Missing 8's are 22

Node ID: 810000723
Total Count of Missing 8's are 22

Node ID: 810000760
Total Count of Missing 8's are 22

Node ID: 810000761
Total Count of Missing 8's are 22

Node ID: 810000762
Total Count of Missing 8's are 22

Node ID: 810000763
Total Count of Missing 8's are 22

Node ID: 810000780
Total Count of Missing 8's are 22

Node ID: 810000781
Total Count of Missing 8's are 22

Node ID: 810000782
Total Count of Missing 8's are 22

Node ID: 810000800
Total Count of Missing 8's are 22

Node ID: 810000801
Total Count of Missing 8's are 22

Node ID: 810000802
Total Count of Missing 8's are 22

Node ID: 810000821
Total Count of Missing 8's are 22

Node ID: 810000822
Total Count of Missing 8's are 22

Node ID: 810000823
Total Count of Missing 8's are 22

Node ID: 810000840
Total Count of Missing 8's are 23

Node ID: 810000841
Total Count of Missing 8's are 24

Node ID: 810000842
Total Count of Missing 8's are 24

Node ID: 810000843
Total Count of Missing 8's are 24

Node ID: 810000860
Total Count of Missing 8's are 24

Node ID: 810000861
Total Count of Missing 8's are 24

Node ID: 810000862
Total Count of Missing 8's are 24

Node ID: 810000863
Total Count of Missing 8's are 24

Node ID: 810000880
Total Count of Missing 8's are 24

Node ID: 810000881
Total Count of Missing 8's are 25

Node ID: 810000882
Total Count of Missing 8's are 25

Node ID: 810000900
Total Count of Missing 8's are 26

Node ID: 810000901
Total Count of Missing 8's are 27

Node ID: 810000902
Total Count of Missing 8's are 27

Node ID: 810000903
Total Count of Missing 8's are 27

Node ID: 810000904
Total Count of Missing 8's are 27

Node ID: 810000940
Total Count of Missing 8's are 27

Node ID: 810000941
Total Count of Missing 8's are 27

Node ID: 810000942
Total Count of Missing 8's are 27

Node ID: 810000943
Total Count of Missing 8's are 27

Node ID: 810000960
Total Count of Missing 8's are 27

Node ID: 810000961
Total Count of Missing 8's are 27

Node ID: 810000962
Total Count of Missing 8's are 27

Node ID: 810000963
Total Count of Missing 8's are 27

Node ID: 810000980
Total Count of Missing 8's are 27

Node ID: 810000981
Total Count of Missing 8's are 27

Node ID: 810000982
Total Count of Missing 8's are 27

Node ID: 810001000
Total Count of Missing 8's are 27

Node ID: 810001001
Total Count of Missing 8's are 27

Node ID: 810001002
Total Count of Missing 8's are 27

Node ID: 810001020
Total Count of Missing 8's are 27

Node ID: 810001021
Total Count of Missing 8's are 27

Node ID: 810001022
Total Count of Missing 8's are 27

Node ID: 810001040
Total Count of Missing 8's are 27

Node ID: 810001043
Total Count of Missing 8's are 27

Node ID: 810001061
Total Count of Missing 8's are 27

Node ID: 810001062
Total Count of Missing 8's are 27

Node ID: 810001080
Total Count of Missing 8's are 28

Node ID: 810001081
Total Count of Missing 8's are 29

Node ID: 810001082
Total Count of Missing 8's are 29

Node ID: 810001083
Total Count of Missing 8's are 29

Node ID: 810001100
Total Count of Missing 8's are 29

Node ID: 810001101
Total Count of Missing 8's are 29

Node ID: 810001102
Total Count of Missing 8's are 29

Node ID: 810001103
Total Count of Missing 8's are 29

Node ID: 810001120
Total Count of Missing 8's are 29

Node ID: 810001121
Total Count of Missing 8's are 29

Node ID: 810001122
Total Count of Missing 8's are 29

Node ID: 810001123
Total Count of Missing 8's are 29

Node ID: 810001140
Total Count of Missing 8's are 29

Node ID: 810001141
Total Count of Missing 8's are 30

Node ID: 810001142
Total Count of Missing 8's are 30

Node ID: 810001160
Total Count of Missing 8's are 30

Node ID: 810001161
Total Count of Missing 8's are 30

Node ID: 810001162
Total Count of Missing 8's are 30

Node ID: 810001163
Total Count of Missing 8's are 30

Node ID: 810001200
Total Count of Missing 8's are 31

Node ID: 810001201
Total Count of Missing 8's are 32

Node ID: 810001202
Total Count of Missing 8's are 32

Node ID: 810001203
Total Count of Missing 8's are 32

Node ID: 810001260
Total Count of Missing 8's are 33

Node ID: 810001261
Total Count of Missing 8's are 34

Node ID: 810001262
Total Count of Missing 8's are 34

Node ID: 810001263
Total Count of Missing 8's are 34

Node ID: 810001280
Total Count of Missing 8's are 35

Node ID: 810001281
Total Count of Missing 8's are 36

Node ID: 810001282
Total Count of Missing 8's are 37

Node ID: 810001283
Total Count of Missing 8's are 38

Node ID: 810001284
Total Count of Missing 8's are 38

Node ID: 810001285
Total Count of Missing 8's are 38

Node ID: 810001300
Total Count of Missing 8's are 39

Node ID: 810001301
Total Count of Missing 8's are 40

Node ID: 810001302
Total Count of Missing 8's are 40

Node ID: 810001303
Total Count of Missing 8's are 40

Node ID: 810001320
Total Count of Missing 8's are 41

Node ID: 810001321
Total Count of Missing 8's are 42

Node ID: 810001322
Total Count of Missing 8's are 43

Node ID: 810001323
Total Count of Missing 8's are 44

Node ID: 810001324
Total Count of Missing 8's are 44

Node ID: 810001325
Total Count of Missing 8's are 44

Node ID: 810001340
Total Count of Missing 8's are 45

Node ID: 810001341
Total Count of Missing 8's are 46

Node ID: 810001342
Total Count of Missing 8's are 47

Node ID: 810001343
Total Count of Missing 8's are 48

Node ID: 810001344
Total Count of Missing 8's are 48

Node ID: 810001345
Total Count of Missing 8's are 48

Node ID: 810001360
Total Count of Missing 8's are 48

Node ID: 810001361
Total Count of Missing 8's are 49

Node ID: 810001362
Total Count of Missing 8's are 49

Node ID: 810001363
Total Count of Missing 8's are 50

Node ID: 810001380
Total Count of Missing 8's are 50

Node ID: 810001381
Total Count of Missing 8's are 50

Node ID: 810001382
Total Count of Missing 8's are 50

Node ID: 810001383
Total Count of Missing 8's are 50

Node ID: 810001400
Total Count of Missing 8's are 50

Node ID: 810001401
Total Count of Missing 8's are 50

Node ID: 810001402
Total Count of Missing 8's are 51

Node ID: 810001420
Total Count of Missing 8's are 52

Node ID: 810001421
Total Count of Missing 8's are 53

Node ID: 810001422
Total Count of Missing 8's are 53

Node ID: 810001423
Total Count of Missing 8's are 53

Node ID: 810001440
Total Count of Missing 8's are 54

Node ID: 810001441
Total Count of Missing 8's are 55

Node ID: 810001442
Total Count of Missing 8's are 55

Node ID: 810001443
Total Count of Missing 8's are 55

Node ID: 810001460
Total Count of Missing 8's are 56

Node ID: 810001461
Total Count of Missing 8's are 57

Node ID: 810001462
Total Count of Missing 8's are 58

Node ID: 810001463
Total Count of Missing 8's are 59

Node ID: 810001464
Total Count of Missing 8's are 59

Node ID: 810001465
Total Count of Missing 8's are 59

Node ID: 810001480
Total Count of Missing 8's are 60

Node ID: 810001481
Total Count of Missing 8's are 61

Node ID: 810001482
Total Count of Missing 8's are 61

Node ID: 810001483
Total Count of Missing 8's are 61

Node ID: 810001500
Total Count of Missing 8's are 62

Node ID: 810001501
Total Count of Missing 8's are 63

Node ID: 810001502
Total Count of Missing 8's are 64

Node ID: 810001503
Total Count of Missing 8's are 65

Node ID: 810001504
Total Count of Missing 8's are 65

Node ID: 810001505
Total Count of Missing 8's are 65

Node ID: 810001560
Total Count of Missing 8's are 65

Node ID: 810001561
Total Count of Missing 8's are 65

Node ID: 810001562
Total Count of Missing 8's are 65

Node ID: 810001563
Total Count of Missing 8's are 65

Node ID: 810001640
Total Count of Missing 8's are 65

Node ID: 810001641
Total Count of Missing 8's are 65

Node ID: 810001642
Total Count of Missing 8's are 65

Node ID: 810001660
Total Count of Missing 8's are 65

Node ID: 810001661
Total Count of Missing 8's are 66

Node ID: 810001662
Total Count of Missing 8's are 66

Node ID: 810001680
Total Count of Missing 8's are 66

Node ID: 810001681
Total Count of Missing 8's are 66

Node ID: 810001682
Total Count of Missing 8's are 66

Node ID: 810001700
Total Count of Missing 8's are 67

Node ID: 810001701
Total Count of Missing 8's are 68

Node ID: 810001702
Total Count of Missing 8's are 68

Node ID: 810001703
Total Count of Missing 8's are 68

Node ID: 810001704
Total Count of Missing 8's are 68

Node ID: 810001720
Total Count of Missing 8's are 69

Node ID: 810001721
Total Count of Missing 8's are 70

Node ID: 810001722
Total Count of Missing 8's are 71

Node ID: 810001723
Total Count of Missing 8's are 71

Node ID: 810001740
Total Count of Missing 8's are 72

Node ID: 810001741
Total Count of Missing 8's are 73

Node ID: 810001742
Total Count of Missing 8's are 74

Node ID: 810001743
Total Count of Missing 8's are 74

Node ID: 810001760
Total Count of Missing 8's are 75

Node ID: 810001761
Total Count of Missing 8's are 76

Node ID: 810001762
Total Count of Missing 8's are 77

Node ID: 810001763
Total Count of Missing 8's are 77

Node ID: 810001780
Total Count of Missing 8's are 77

Node ID: 810001781
Total Count of Missing 8's are 77

Node ID: 810001782
Total Count of Missing 8's are 77

Node ID: 810001783
Total Count of Missing 8's are 77

Node ID: 810001800
Total Count of Missing 8's are 77

Node ID: 810001801
Total Count of Missing 8's are 77

Node ID: 810001802
Total Count of Missing 8's are 77

Node ID: 810001803
Total Count of Missing 8's are 77

Node ID: 810001804
Total Count of Missing 8's are 77

Node ID: 810001805
Total Count of Missing 8's are 77

Node ID: 810001820
Total Count of Missing 8's are 77

Node ID: 810001821
Total Count of Missing 8's are 77

Node ID: 810001822
Total Count of Missing 8's are 78

Node ID: 810001823
Total Count of Missing 8's are 79

Node ID: 810001824
Total Count of Missing 8's are 79

Node ID: 810001825
Total Count of Missing 8's are 79

Node ID: 810001840
Total Count of Missing 8's are 79

Node ID: 810001841
Total Count of Missing 8's are 79

Node ID: 810001842
Total Count of Missing 8's are 79

Node ID: 810001843
Total Count of Missing 8's are 79

Node ID: 810001844
Total Count of Missing 8's are 80

Node ID: 810001845
Total Count of Missing 8's are 81

Node ID: 810001860
Total Count of Missing 8's are 81

Node ID: 810001861
Total Count of Missing 8's are 81

Node ID: 810001864
Total Count of Missing 8's are 81

Node ID: 810001882
Total Count of Missing 8's are 81

Node ID: 810001883
Total Count of Missing 8's are 81

Node ID: 810001900
Total Count of Missing 8's are 81

Node ID: 810001901
Total Count of Missing 8's are 81

Node ID: 810001902
Total Count of Missing 8's are 81

Node ID: 810001920
Total Count of Missing 8's are 81

Node ID: 810001921
Total Count of Missing 8's are 81

Node ID: 810001922
Total Count of Missing 8's are 81

Node ID: 810001940
Total Count of Missing 8's are 81

Node ID: 810001941
Total Count of Missing 8's are 81

Node ID: 810001942
Total Count of Missing 8's are 82

Node ID: 810001960
Total Count of Missing 8's are 82

Node ID: 810001961
Total Count of Missing 8's are 82

Node ID: 810001962
Total Count of Missing 8's are 83

Node ID: 810001980
Total Count of Missing 8's are 83

Node ID: 810001981
Total Count of Missing 8's are 83

Node ID: 810001982
Total Count of Missing 8's are 83

Node ID: 810002000
Total Count of Missing 8's are 84

Node ID: 810002001
Total Count of Missing 8's are 85

Node ID: 810002002
Total Count of Missing 8's are 85

Node ID: 810002003
Total Count of Missing 8's are 85

Node ID: 810002020
Total Count of Missing 8's are 85

Node ID: 810002021
Total Count of Missing 8's are 85

Node ID: 810002022
Total Count of Missing 8's are 85

Node ID: 810002040
Total Count of Missing 8's are 85

Node ID: 810002041
Total Count of Missing 8's are 85

Node ID: 810002042
Total Count of Missing 8's are 85

Node ID: 810002043
Total Count of Missing 8's are 85

Node ID: 810002060
Total Count of Missing 8's are 86

Node ID: 810002061
Total Count of Missing 8's are 87

Node ID: 810002062
Total Count of Missing 8's are 88

Node ID: 810002063
Total Count of Missing 8's are 89

Node ID: 810002064
Total Count of Missing 8's are 90

Node ID: 810002065
Total Count of Missing 8's are 91

Node ID: 810002080
Total Count of Missing 8's are 92

Node ID: 810002081
Total Count of Missing 8's are 93

Node ID: 810002082
Total Count of Missing 8's are 94

Node ID: 810002083
Total Count of Missing 8's are 95

Node ID: 810002084
Total Count of Missing 8's are 96

Node ID: 810002085
Total Count of Missing 8's are 97

Node ID: 810002100
Total Count of Missing 8's are 98

Node ID: 810002101
Total Count of Missing 8's are 99

Node ID: 810002102
Total Count of Missing 8's are 100

Node ID: 810002103
Total Count of Missing 8's are 101

Node ID: 810002104
Total Count of Missing 8's are 102

Node ID: 810002120
Total Count of Missing 8's are 103

Node ID: 810002121
Total Count of Missing 8's are 104

Node ID: 810002122
Total Count of Missing 8's are 105

Node ID: 810002123
Total Count of Missing 8's are 106

Node ID: 810002124
Total Count of Missing 8's are 107

Node ID: 810002125
Total Count of Missing 8's are 108

Node ID: 810002140
Total Count of Missing 8's are 109

Node ID: 810002141
Total Count of Missing 8's are 110

Node ID: 810002142
Total Count of Missing 8's are 110

Node ID: 810002143
Total Count of Missing 8's are 110

Node ID: 810002162
Total Count of Missing 8's are 110

Node ID: 810002181
Total Count of Missing 8's are 110

Node ID: 810002182
Total Count of Missing 8's are 110

Node ID: 810002220
Total Count of Missing 8's are 110

Node ID: 810002222
Total Count of Missing 8's are 110

Node ID: 810002260
Total Count of Missing 8's are 110

Node ID: 810002263
Total Count of Missing 8's are 111

Node ID: 810002281
Total Count of Missing 8's are 112

Node ID: 810002282
Total Count of Missing 8's are 112

Node ID: 810002302
Total Count of Missing 8's are 113

Node ID: 810002303
Total Count of Missing 8's are 114

Node ID: 810002304
Total Count of Missing 8's are 114

Node ID: 810002305
Total Count of Missing 8's are 114

Node ID: 810002320
Total Count of Missing 8's are 115

Node ID: 810002321
Total Count of Missing 8's are 116

Node ID: 810002322
Total Count of Missing 8's are 116

Node ID: 810002323
Total Count of Missing 8's are 116

Node ID: 810002340
Total Count of Missing 8's are 116

Node ID: 810002342
Total Count of Missing 8's are 116

Node ID: 810002360
Total Count of Missing 8's are 117

Node ID: 810002361
Total Count of Missing 8's are 118

Node ID: 810002362
Total Count of Missing 8's are 119

Node ID: 810002363
Total Count of Missing 8's are 120

Node ID: 810002364
Total Count of Missing 8's are 121

Node ID: 810002365
Total Count of Missing 8's are 122

Node ID: 810002366
Total Count of Missing 8's are 123

Node ID: 810002380
Total Count of Missing 8's are 124

Node ID: 810002381
Total Count of Missing 8's are 125

Node ID: 810002382
Total Count of Missing 8's are 126

Node ID: 810002383
Total Count of Missing 8's are 127

Node ID: 810002384
Total Count of Missing 8's are 128

Node ID: 810002385
Total Count of Missing 8's are 129

Node ID: 810002386
Total Count of Missing 8's are 130

Node ID: 810002387
Total Count of Missing 8's are 131

Node ID: 810002400
Total Count of Missing 8's are 132

Node ID: 810002401
Total Count of Missing 8's are 133

Node ID: 810002402
Total Count of Missing 8's are 134

Node ID: 810002403
Total Count of Missing 8's are 135

Node ID: 810002404
Total Count of Missing 8's are 136

Node ID: 810002405
Total Count of Missing 8's are 137

Node ID: 810002420
Total Count of Missing 8's are 138

Node ID: 810002421
Total Count of Missing 8's are 139

Node ID: 810002422
Total Count of Missing 8's are 140

Node ID: 810002423
Total Count of Missing 8's are 141

Node ID: 810002424
Total Count of Missing 8's are 142

Node ID: 810002425
Total Count of Missing 8's are 143

Node ID: 810002440
Total Count of Missing 8's are 144

Node ID: 810002441
Total Count of Missing 8's are 145

Node ID: 810002442
Total Count of Missing 8's are 146

Node ID: 810002443
Total Count of Missing 8's are 147

Node ID: 810002444
Total Count of Missing 8's are 148

Node ID: 810002445
Total Count of Missing 8's are 149

Node ID: 810002461
Total Count of Missing 8's are 149

Node ID: 810002500
Total Count of Missing 8's are 149

Node ID: 810002501
Total Count of Missing 8's are 149

Node ID: 810002502
Total Count of Missing 8's are 149

Node ID: 810002503
Total Count of Missing 8's are 149

Node ID: 810002504
Total Count of Missing 8's are 150

Node ID: 810002505
Total Count of Missing 8's are 151

Node ID: 810002520
Total Count of Missing 8's are 151

Node ID: 810002521
Total Count of Missing 8's are 151

Node ID: 810002522
Total Count of Missing 8's are 151

Node ID: 810002523
Total Count of Missing 8's are 151

Node ID: 810002540
Total Count of Missing 8's are 151

Node ID: 810002541
Total Count of Missing 8's are 151

Node ID: 810002542
Total Count of Missing 8's are 152

Node ID: 810002543
Total Count of Missing 8's are 153

Node ID: 810002544
Total Count of Missing 8's are 153

Node ID: 810002545
Total Count of Missing 8's are 153

Node ID: 810002580
Total Count of Missing 8's are 154

Node ID: 810002581
Total Count of Missing 8's are 155

Node ID: 810002582
Total Count of Missing 8's are 155

Node ID: 810002583
Total Count of Missing 8's are 155

Node ID: 810002600
Total Count of Missing 8's are 156

Node ID: 810002601
Total Count of Missing 8's are 157

Node ID: 810002602
Total Count of Missing 8's are 158

Node ID: 810002603
Total Count of Missing 8's are 159

Node ID: 810002604
Total Count of Missing 8's are 160

Node ID: 810002605
Total Count of Missing 8's are 161

Node ID: 810002620
Total Count of Missing 8's are 162

Node ID: 810002621
Total Count of Missing 8's are 163

Node ID: 810002622
Total Count of Missing 8's are 164

Node ID: 810002623
Total Count of Missing 8's are 165

Node ID: 810002624
Total Count of Missing 8's are 166

Node ID: 810002625
Total Count of Missing 8's are 167

Node ID: 810002640
Total Count of Missing 8's are 168

Node ID: 810002641
Total Count of Missing 8's are 169

Node ID: 810002642
Total Count of Missing 8's are 169

Node ID: 810002643
Total Count of Missing 8's are 169

Node ID: 810002660
Total Count of Missing 8's are 169

Node ID: 810002661
Total Count of Missing 8's are 169

Node ID: 810002662
Total Count of Missing 8's are 169

Node ID: 810002663
Total Count of Missing 8's are 169

Node ID: 810002664
Total Count of Missing 8's are 169

Node ID: 810002665
Total Count of Missing 8's are 169

Node ID: 810002680
Total Count of Missing 8's are 169

Node ID: 810002681
Total Count of Missing 8's are 169

Node ID: 810002682
Total Count of Missing 8's are 169

Node ID: 810002683
Total Count of Missing 8's are 169

Node ID: 810002684
Total Count of Missing 8's are 170

Node ID: 810002685
Total Count of Missing 8's are 171

Node ID: 810002760
Total Count of Missing 8's are 171

Node ID: 810002800
Total Count of Missing 8's are 172

Node ID: 810002801
Total Count of Missing 8's are 173

Node ID: 810002802
Total Count of Missing 8's are 174

Node ID: 810002803
Total Count of Missing 8's are 175

Node ID: 810002804
Total Count of Missing 8's are 176

Node ID: 810002805
Total Count of Missing 8's are 177

Node ID: 810002806
Total Count of Missing 8's are 178

Node ID: 810002820
Total Count of Missing 8's are 179

Node ID: 810002821
Total Count of Missing 8's are 180

Node ID: 810002822
Total Count of Missing 8's are 181

Node ID: 810002823
Total Count of Missing 8's are 182

Node ID: 810002824
Total Count of Missing 8's are 183

Node ID: 810002840
Total Count of Missing 8's are 184

Node ID: 810002841
Total Count of Missing 8's are 185

Node ID: 810002842
Total Count of Missing 8's are 186

Node ID: 810002843
Total Count of Missing 8's are 187

Node ID: 810002844
Total Count of Missing 8's are 188

Node ID: 810002845
Total Count of Missing 8's are 189

Node ID: 810002860
Total Count of Missing 8's are 190

Node ID: 810002861
Total Count of Missing 8's are 191

Node ID: 810002862
Total Count of Missing 8's are 192

Node ID: 810002863
Total Count of Missing 8's are 193

Node ID: 810002864
Total Count of Missing 8's are 194

Node ID: 810002865
Total Count of Missing 8's are 195

Node ID: 810002902
Total Count of Missing 8's are 195

Node ID: 810002920
Total Count of Missing 8's are 196

Node ID: 810002921
Total Count of Missing 8's are 197

Node ID: 810002922
Total Count of Missing 8's are 197

Node ID: 810002923
Total Count of Missing 8's are 197

Node ID: 810002940
Total Count of Missing 8's are 198

Node ID: 810002941
Total Count of Missing 8's are 199

Node ID: 810002942
Total Count of Missing 8's are 199

Node ID: 810002943
Total Count of Missing 8's are 199

Node ID: 810002980
Total Count of Missing 8's are 200

Node ID: 810002981
Total Count of Missing 8's are 201

Node ID: 810002982
Total Count of Missing 8's are 201

Node ID: 810002983
Total Count of Missing 8's are 201

Node ID: 810003000
Total Count of Missing 8's are 201

Node ID: 810003003
Total Count of Missing 8's are 201

Node ID: 810003020
Total Count of Missing 8's are 202

Node ID: 810003021
Total Count of Missing 8's are 203

Node ID: 810003022
Total Count of Missing 8's are 204

Node ID: 810003023
Total Count of Missing 8's are 205

Node ID: 810003024
Total Count of Missing 8's are 206

Node ID: 810003025
Total Count of Missing 8's are 207

Node ID: 810003040
Total Count of Missing 8's are 208

Node ID: 810003041
Total Count of Missing 8's are 209

Node ID: 810003042
Total Count of Missing 8's are 210

Node ID: 810003043
Total Count of Missing 8's are 211

Node ID: 810003044
Total Count of Missing 8's are 212

Node ID: 810003045
Total Count of Missing 8's are 213

Node ID: 810003060
Total Count of Missing 8's are 214

Node ID: 810003061
Total Count of Missing 8's are 215

Node ID: 810003062
Total Count of Missing 8's are 216

Node ID: 810003063
Total Count of Missing 8's are 217

Node ID: 810003064
Total Count of Missing 8's are 218

Node ID: 810003065
Total Count of Missing 8's are 219

Node ID: 810003101
Total Count of Missing 8's are 219

Node ID: 810003103
Total Count of Missing 8's are 219

Node ID: 810003121
Total Count of Missing 8's are 219

Node ID: 810003123
Total Count of Missing 8's are 219

Node ID: 810003140
Total Count of Missing 8's are 220

Node ID: 810003141
Total Count of Missing 8's are 221

Node ID: 810003142
Total Count of Missing 8's are 221

Node ID: 810003143
Total Count of Missing 8's are 221

Node ID: 810003160
Total Count of Missing 8's are 222

Node ID: 810003161
Total Count of Missing 8's are 223

Node ID: 810003162
Total Count of Missing 8's are 224

Node ID: 810003163
Total Count of Missing 8's are 225

Node ID: 810003164
Total Count of Missing 8's are 226

Node ID: 810003165
Total Count of Missing 8's are 227

Node ID: 810003180
Total Count of Missing 8's are 228

Node ID: 810003181
Total Count of Missing 8's are 229

Node ID: 810003182
Total Count of Missing 8's are 230

Node ID: 810003183
Total Count of Missing 8's are 231

Node ID: 810003184
Total Count of Missing 8's are 232

Node ID: 810003185
Total Count of Missing 8's are 233

Node ID: 810003200
Total Count of Missing 8's are 234

Node ID: 810003201
Total Count of Missing 8's are 235

Node ID: 810003202
Total Count of Missing 8's are 236

Node ID: 810003203
Total Count of Missing 8's are 237

Node ID: 810003204
Total Count of Missing 8's are 238

Node ID: 810003205
Total Count of Missing 8's are 239

Node ID: 810003220
Total Count of Missing 8's are 240

Node ID: 810003221
Total Count of Missing 8's are 241

Node ID: 810003222
Total Count of Missing 8's are 242

Node ID: 810003223
Total Count of Missing 8's are 243

Node ID: 810003224
Total Count of Missing 8's are 244

Node ID: 810003225
Total Count of Missing 8's are 245

Node ID: 810003240
Total Count of Missing 8's are 246

Node ID: 810003241
Total Count of Missing 8's are 247

Node ID: 810003242
Total Count of Missing 8's are 248

Node ID: 810003243
Total Count of Missing 8's are 249

Node ID: 810003244
Total Count of Missing 8's are 249

Node ID: 810003245
Total Count of Missing 8's are 249

Node ID: 810003260
Total Count of Missing 8's are 249

Node ID: 810003261
Total Count of Missing 8's are 249

Node ID: 810003262
Total Count of Missing 8's are 249

Node ID: 810003263
Total Count of Missing 8's are 249

Node ID: 810003280
Total Count of Missing 8's are 249

Node ID: 810003281
Total Count of Missing 8's are 249

Node ID: 810003282
Total Count of Missing 8's are 250

Node ID: 810003300
Total Count of Missing 8's are 250

Node ID: 810003301
Total Count of Missing 8's are 250

Node ID: 810003302
Total Count of Missing 8's are 250

Node ID: 810003320
Total Count of Missing 8's are 250

Node ID: 810003321
Total Count of Missing 8's are 250

Node ID: 810003322
Total Count of Missing 8's are 250

Node ID: 810003340
Total Count of Missing 8's are 250

Node ID: 810003342
Total Count of Missing 8's are 250

Node ID: 810003343
Total Count of Missing 8's are 250

Node ID: 810003360
Total Count of Missing 8's are 250

Node ID: 810003361
Total Count of Missing 8's are 250

Node ID: 810003362
Total Count of Missing 8's are 250

Node ID: 810003380
Total Count of Missing 8's are 250

Node ID: 810003381
Total Count of Missing 8's are 250

Node ID: 810003382
Total Count of Missing 8's are 250

Node ID: 810003400
Total Count of Missing 8's are 250

Node ID: 810003401
Total Count of Missing 8's are 250

Node ID: 810003402
Total Count of Missing 8's are 250

Node ID: 810003403
Total Count of Missing 8's are 250

Node ID: 810003420
Total Count of Missing 8's are 250

Node ID: 810003421
Total Count of Missing 8's are 250

Node ID: 810003422
Total Count of Missing 8's are 250

Node ID: 810003423
Total Count of Missing 8's are 250

Node ID: 810003440
Total Count of Missing 8's are 251

Node ID: 810003441
Total Count of Missing 8's are 252

Node ID: 810003442
Total Count of Missing 8's are 252

Node ID: 810003443
Total Count of Missing 8's are 252

Node ID: 810003444
Total Count of Missing 8's are 252

Node ID: 810003460
Total Count of Missing 8's are 253

Node ID: 810003461
Total Count of Missing 8's are 254

Node ID: 810003462
Total Count of Missing 8's are 254

Node ID: 810003463
Total Count of Missing 8's are 254

Node ID: 810003480
Total Count of Missing 8's are 255

Node ID: 810003481
Total Count of Missing 8's are 256

Node ID: 810003482
Total Count of Missing 8's are 256

Node ID: 810003483
Total Count of Missing 8's are 256

Node ID: 810003500
Total Count of Missing 8's are 256

Node ID: 810003501
Total Count of Missing 8's are 256

Node ID: 810003502
Total Count of Missing 8's are 257

Node ID: 810003520
Total Count of Missing 8's are 257

Node ID: 810003521
Total Count of Missing 8's are 257

Node ID: 810003522
Total Count of Missing 8's are 257

Node ID: 810003540
Total Count of Missing 8's are 257

Node ID: 810003541
Total Count of Missing 8's are 258

Node ID: 810003542
Total Count of Missing 8's are 259

Node ID: 810003543
Total Count of Missing 8's are 260

Node ID: 810003544
Total Count of Missing 8's are 260

Node ID: 810003545
Total Count of Missing 8's are 260

Node ID: 810003560
Total Count of Missing 8's are 260

Node ID: 810003561
Total Count of Missing 8's are 261

Node ID: 810003562
Total Count of Missing 8's are 261

Node ID: 810003580
Total Count of Missing 8's are 261

Node ID: 810003581
Total Count of Missing 8's are 261

Node ID: 810003582
Total Count of Missing 8's are 262

Node ID: 810003600
Total Count of Missing 8's are 262

Node ID: 810003601
Total Count of Missing 8's are 263

Node ID: 810003602
Total Count of Missing 8's are 263

Node ID: 810003620
Total Count of Missing 8's are 263

Node ID: 810003621
Total Count of Missing 8's are 263

Node ID: 810003622
Total Count of Missing 8's are 263

Node ID: 810003640
Total Count of Missing 8's are 263

Node ID: 810003641
Total Count of Missing 8's are 263

Node ID: 810003642
Total Count of Missing 8's are 264

Node ID: 810003660
Total Count of Missing 8's are 265

Node ID: 810003661
Total Count of Missing 8's are 266

Node ID: 810003662
Total Count of Missing 8's are 266

Node ID: 810003663
Total Count of Missing 8's are 266

Node ID: 810003664
Total Count of Missing 8's are 266

Node ID: 810003680
Total Count of Missing 8's are 266

Node ID: 810003681
Total Count of Missing 8's are 267

Node ID: 810003682
Total Count of Missing 8's are 267

Node ID: 810003700
Total Count of Missing 8's are 267

Node ID: 810003701
Total Count of Missing 8's are 268

Node ID: 810003702
Total Count of Missing 8's are 268

Node ID: 810003703
Total Count of Missing 8's are 268

Node ID: 810003720
Total Count of Missing 8's are 269

Node ID: 810003721
Total Count of Missing 8's are 270

Node ID: 810003722
Total Count of Missing 8's are 270

Node ID: 810003723
Total Count of Missing 8's are 270

Node ID: 810003740
Total Count of Missing 8's are 270

Node ID: 810003741
Total Count of Missing 8's are 270

Node ID: 810003742
Total Count of Missing 8's are 271

Node ID: 810003760
Total Count of Missing 8's are 272

Node ID: 810003761
Total Count of Missing 8's are 273

Node ID: 810003762
Total Count of Missing 8's are 273

Node ID: 810003763
Total Count of Missing 8's are 273

Node ID: 810003780
Total Count of Missing 8's are 273

Node ID: 810003781
Total Count of Missing 8's are 273

Node ID: 810003782
Total Count of Missing 8's are 273

Node ID: 810003800
Total Count of Missing 8's are 273

Node ID: 810003840
Total Count of Missing 8's are 274

Node ID: 810003841
Total Count of Missing 8's are 275

Node ID: 810003842
Total Count of Missing 8's are 276

Node ID: 810003843
Total Count of Missing 8's are 277

Node ID: 810003844
Total Count of Missing 8's are 277

Node ID: 810003845
Total Count of Missing 8's are 277

Node ID: 810003860
Total Count of Missing 8's are 278

Node ID: 810003861
Total Count of Missing 8's are 279

Node ID: 810003862
Total Count of Missing 8's are 279

Node ID: 810003863
Total Count of Missing 8's are 279

Node ID: 810003880
Total Count of Missing 8's are 280

Node ID: 810003881
Total Count of Missing 8's are 281

Node ID: 810003882
Total Count of Missing 8's are 281

Node ID: 810003883
Total Count of Missing 8's are 282

Node ID: 810003884
Total Count of Missing 8's are 282

Node ID: 810003920
Total Count of Missing 8's are 282

Node ID: 810003922
Total Count of Missing 8's are 282

Node ID: 810003940
Total Count of Missing 8's are 283

Node ID: 810003941
Total Count of Missing 8's are 284

Node ID: 810003942
Total Count of Missing 8's are 285

Node ID: 810003943
Total Count of Missing 8's are 285

Node ID: 810003944
Total Count of Missing 8's are 285

Node ID: 810003945
Total Count of Missing 8's are 285

Node ID: 810003960
Total Count of Missing 8's are 286

Node ID: 810003961
Total Count of Missing 8's are 287

Node ID: 810003962
Total Count of Missing 8's are 287

Node ID: 810003963
Total Count of Missing 8's are 287

Node ID: 810003980
Total Count of Missing 8's are 288

Node ID: 810003981
Total Count of Missing 8's are 289

Node ID: 810003982
Total Count of Missing 8's are 289

Node ID: 810003983
Total Count of Missing 8's are 289

Node ID: 810004000
Total Count of Missing 8's are 289

Node ID: 810004022
Total Count of Missing 8's are 289

Node ID: 810004042
Total Count of Missing 8's are 290

Node ID: 810004043
Total Count of Missing 8's are 291

Node ID: 810004044
Total Count of Missing 8's are 291

Node ID: 810004045
Total Count of Missing 8's are 291

Node ID: 810004061
Total Count of Missing 8's are 291

Node ID: 810004063
Total Count of Missing 8's are 291

Node ID: 810004101
Total Count of Missing 8's are 291

Node ID: 810004102
Total Count of Missing 8's are 291

Node ID: 810004120
Total Count of Missing 8's are 292

Node ID: 810004121
Total Count of Missing 8's are 293

Node ID: 810004122
Total Count of Missing 8's are 293

Node ID: 810004123
Total Count of Missing 8's are 293

Node ID: 810004140
Total Count of Missing 8's are 294

Node ID: 810004141
Total Count of Missing 8's are 295

Node ID: 810004144
Total Count of Missing 8's are 295

Node ID: 810004145
Total Count of Missing 8's are 295

Node ID: 810004160
Total Count of Missing 8's are 295

Node ID: 810004182
Total Count of Missing 8's are 295

Node ID: 810004200
Total Count of Missing 8's are 296

Node ID: 810004201
Total Count of Missing 8's are 297

Node ID: 810004202
Total Count of Missing 8's are 297

Node ID: 810004203
Total Count of Missing 8's are 297

Node ID: 810004220
Total Count of Missing 8's are 298

Node ID: 810004221
Total Count of Missing 8's are 298

Node ID: 810004222
Total Count of Missing 8's are 298

Node ID: 810004223
Total Count of Missing 8's are 298

Node ID: 810004240
Total Count of Missing 8's are 299

Node ID: 810004241
Total Count of Missing 8's are 300

Node ID: 810004242
Total Count of Missing 8's are 300

Node ID: 810004243
Total Count of Missing 8's are 300

Node ID: 810004280
Total Count of Missing 8's are 300

Node ID: 810004281
Total Count of Missing 8's are 300

Node ID: 810004282
Total Count of Missing 8's are 301

Node ID: 810004300
Total Count of Missing 8's are 302

Node ID: 810004301
Total Count of Missing 8's are 303

Node ID: 810004302
Total Count of Missing 8's are 303

Node ID: 810004303
Total Count of Missing 8's are 303

Node ID: 810004320
Total Count of Missing 8's are 303

Node ID: 810004323
Total Count of Missing 8's are 303

Node ID: 810004360
Total Count of Missing 8's are 304

Node ID: 810004361
Total Count of Missing 8's are 305

Node ID: 810004362
Total Count of Missing 8's are 305

Node ID: 810004363
Total Count of Missing 8's are 306

Node ID: 810004364
Total Count of Missing 8's are 306

Node ID: 810004380
Total Count of Missing 8's are 307

Node ID: 810004381
Total Count of Missing 8's are 308

Node ID: 810004382
Total Count of Missing 8's are 309

Node ID: 810004383
Total Count of Missing 8's are 310

Node ID: 810004384
Total Count of Missing 8's are 311

Node ID: 810004385
Total Count of Missing 8's are 312

Node ID: 810004386
Total Count of Missing 8's are 313

Node ID: 810004387
Total Count of Missing 8's are 314

Node ID: 810004400
Total Count of Missing 8's are 315

Node ID: 810004401
Total Count of Missing 8's are 316

Node ID: 810004402
Total Count of Missing 8's are 317

Node ID: 810004403
Total Count of Missing 8's are 318

Node ID: 810004404
Total Count of Missing 8's are 319

Node ID: 810004405
Total Count of Missing 8's are 320

Node ID: 810004420
Total Count of Missing 8's are 321

Node ID: 810004421
Total Count of Missing 8's are 322

Node ID: 810004422
Total Count of Missing 8's are 323

Node ID: 810004423
Total Count of Missing 8's are 324

Node ID: 810004424
Total Count of Missing 8's are 325

Node ID: 810004440
Total Count of Missing 8's are 325

Node ID: 810004441
Total Count of Missing 8's are 326

Node ID: 810004442
Total Count of Missing 8's are 326

Node ID: 810004460
Total Count of Missing 8's are 327

Node ID: 810004461
Total Count of Missing 8's are 328

Node ID: 810004462
Total Count of Missing 8's are 329

Node ID: 810004480
Total Count of Missing 8's are 330

Node ID: 810004481
Total Count of Missing 8's are 331

Node ID: 810004482
Total Count of Missing 8's are 332

Node ID: 810004500
Total Count of Missing 8's are 333

Node ID: 810004501
Total Count of Missing 8's are 334

Node ID: 810004502
Total Count of Missing 8's are 335

Node ID: 810004503
Total Count of Missing 8's are 336

Node ID: 810004520
Total Count of Missing 8's are 337

Node ID: 810004521
Total Count of Missing 8's are 338

Node ID: 810004522
Total Count of Missing 8's are 339

Node ID: 810004523
Total Count of Missing 8's are 339

Node ID: 810004524
Total Count of Missing 8's are 339

Node ID: 810004540
Total Count of Missing 8's are 340

Node ID: 810004541
Total Count of Missing 8's are 341

Node ID: 810004542
Total Count of Missing 8's are 342

Node ID: 810004543
Total Count of Missing 8's are 343

Node ID: 810004544
Total Count of Missing 8's are 344

Node ID: 810004545
Total Count of Missing 8's are 345

Node ID: 810004546
Total Count of Missing 8's are 346

Node ID: 810004560
Total Count of Missing 8's are 347

Node ID: 810004561
Total Count of Missing 8's are 348

Node ID: 810004562
Total Count of Missing 8's are 349

Node ID: 810004563
Total Count of Missing 8's are 350

Node ID: 810004564
Total Count of Missing 8's are 351

Node ID: 810004565
Total Count of Missing 8's are 352

Node ID: 810004580
Total Count of Missing 8's are 353

Node ID: 810004581
Total Count of Missing 8's are 354

Node ID: 810004582
Total Count of Missing 8's are 355

Node ID: 810004583
Total Count of Missing 8's are 355

Node ID: 810004584
Total Count of Missing 8's are 355

Node ID: 810004600
Total Count of Missing 8's are 356

Node ID: 810004601
Total Count of Missing 8's are 357

Node ID: 810004602
Total Count of Missing 8's are 358

Node ID: 810004603
Total Count of Missing 8's are 359

Node ID: 810004604
Total Count of Missing 8's are 360

Node ID: 810004620
Total Count of Missing 8's are 361

Node ID: 810004621
Total Count of Missing 8's are 362

Node ID: 810004622
Total Count of Missing 8's are 363

Node ID: 810004623
Total Count of Missing 8's are 364

Node ID: 810004624
Total Count of Missing 8's are 365

Node ID: 810004625
Total Count of Missing 8's are 366

Node ID: 810004640
Total Count of Missing 8's are 367

Node ID: 810004641
Total Count of Missing 8's are 368

Node ID: 810004642
Total Count of Missing 8's are 369

Node ID: 810004643
Total Count of Missing 8's are 370

Node ID: 810004644
Total Count of Missing 8's are 371

Node ID: 810004645
Total Count of Missing 8's are 372

Node ID: 810004660
Total Count of Missing 8's are 373

Node ID: 810004661
Total Count of Missing 8's are 374

Node ID: 810004662
Total Count of Missing 8's are 375

Node ID: 810004663
Total Count of Missing 8's are 376

Node ID: 810004664
Total Count of Missing 8's are 377

Node ID: 810004682
Total Count of Missing 8's are 377

Node ID: 810004701
Total Count of Missing 8's are 377

Node ID: 810004702
Total Count of Missing 8's are 377

Node ID: 810004720
Total Count of Missing 8's are 377

Node ID: 810004721
Total Count of Missing 8's are 377

Node ID: 810004722
Total Count of Missing 8's are 377

Node ID: 810004740
Total Count of Missing 8's are 378

Node ID: 810004741
Total Count of Missing 8's are 379

Node ID: 810004742
Total Count of Missing 8's are 379

Node ID: 810004743
Total Count of Missing 8's are 379

Node ID: 810004760
Total Count of Missing 8's are 380

Node ID: 810004761
Total Count of Missing 8's are 380

Node ID: 810004762
Total Count of Missing 8's are 380

Node ID: 810004780
Total Count of Missing 8's are 380

Node ID: 810004781
Total Count of Missing 8's are 381

Node ID: 810004782
Total Count of Missing 8's are 381

Node ID: 810004783
Total Count of Missing 8's are 382

Node ID: 810004800
Total Count of Missing 8's are 382

Node ID: 810004801
Total Count of Missing 8's are 383

Node ID: 810004802
Total Count of Missing 8's are 384

Node ID: 810004803
Total Count of Missing 8's are 385

Node ID: 810004804
Total Count of Missing 8's are 385

Node ID: 810004805
Total Count of Missing 8's are 385

Node ID: 810004820
Total Count of Missing 8's are 386

Node ID: 810004821
Total Count of Missing 8's are 387

Node ID: 810004822
Total Count of Missing 8's are 387

Node ID: 810004823
Total Count of Missing 8's are 387

Node ID: 810004840
Total Count of Missing 8's are 387

Node ID: 810004841
Total Count of Missing 8's are 387

Node ID: 810004842
Total Count of Missing 8's are 387

Node ID: 810004860
Total Count of Missing 8's are 388

Node ID: 810004861
Total Count of Missing 8's are 389

Node ID: 810004862
Total Count of Missing 8's are 389

Node ID: 810004863
Total Count of Missing 8's are 389

Node ID: 810004880
Total Count of Missing 8's are 390

Node ID: 810004881
Total Count of Missing 8's are 391

Node ID: 810004882
Total Count of Missing 8's are 391

Node ID: 810004883
Total Count of Missing 8's are 391

Node ID: 810004900
Total Count of Missing 8's are 392

Node ID: 810004901
Total Count of Missing 8's are 393

Node ID: 810004902
Total Count of Missing 8's are 393

Node ID: 810004903
Total Count of Missing 8's are 393

Node ID: 810004920
Total Count of Missing 8's are 394

Node ID: 810004921
Total Count of Missing 8's are 395

Node ID: 810004922
Total Count of Missing 8's are 395

Node ID: 810004923
Total Count of Missing 8's are 395

Node ID: 810004940
Total Count of Missing 8's are 395

Node ID: 810004941
Total Count of Missing 8's are 395

Node ID: 810004942
Total Count of Missing 8's are 395

Node ID: 810004960
Total Count of Missing 8's are 395

Node ID: 810004961
Total Count of Missing 8's are 395

Node ID: 810004962
Total Count of Missing 8's are 396

Node ID: 810004980
Total Count of Missing 8's are 397

Node ID: 810004981
Total Count of Missing 8's are 398

Node ID: 810004982
Total Count of Missing 8's are 398

Node ID: 810004983
Total Count of Missing 8's are 398

Node ID: 810005000
Total Count of Missing 8's are 398

Node ID: 810005001
Total Count of Missing 8's are 399

Node ID: 810005002
Total Count of Missing 8's are 399

Node ID: 810005003
Total Count of Missing 8's are 399

Node ID: 810005020
Total Count of Missing 8's are 399

Node ID: 810005021
Total Count of Missing 8's are 399

Node ID: 810005022
Total Count of Missing 8's are 399

Node ID: 810005023
Total Count of Missing 8's are 399

Node ID: 810005024
Total Count of Missing 8's are 399

Node ID: 810005040
Total Count of Missing 8's are 400

Node ID: 810005041
Total Count of Missing 8's are 401

Node ID: 810005042
Total Count of Missing 8's are 401

Node ID: 810005043
Total Count of Missing 8's are 401

Node ID: 810005060
Total Count of Missing 8's are 401

Node ID: 810005061
Total Count of Missing 8's are 401

Node ID: 810005062
Total Count of Missing 8's are 401

Node ID: 810005080
Total Count of Missing 8's are 401

Node ID: 810005081
Total Count of Missing 8's are 401

Node ID: 810005082
Total Count of Missing 8's are 401

Node ID: 810005100
Total Count of Missing 8's are 401

Node ID: 810005101
Total Count of Missing 8's are 401

Node ID: 810005102
Total Count of Missing 8's are 401

Node ID: 810005120
Total Count of Missing 8's are 401

Node ID: 810005121
Total Count of Missing 8's are 401

Node ID: 810005122
Total Count of Missing 8's are 401

Node ID: 810005123
Total Count of Missing 8's are 401

Node ID: 810005140
Total Count of Missing 8's are 401

Node ID: 810005141
Total Count of Missing 8's are 401

Node ID: 810005142
Total Count of Missing 8's are 401

Node ID: 810005160
Total Count of Missing 8's are 401

Node ID: 810005161
Total Count of Missing 8's are 401

Node ID: 810005180
Total Count of Missing 8's are 401

Node ID: 810005181
Total Count of Missing 8's are 401

Node ID: 810005182
Total Count of Missing 8's are 401

Node ID: 810005200
Total Count of Missing 8's are 402

Node ID: 810005201
Total Count of Missing 8's are 403

Node ID: 810005202
Total Count of Missing 8's are 403

Node ID: 810005203
Total Count of Missing 8's are 403

Node ID: 810005220
Total Count of Missing 8's are 403

Node ID: 810005221
Total Count of Missing 8's are 403

Node ID: 810005222
Total Count of Missing 8's are 403

Node ID: 810005223
Total Count of Missing 8's are 403

Node ID: 810005240
Total Count of Missing 8's are 404

Node ID: 810005241
Total Count of Missing 8's are 405

Node ID: 810005242
Total Count of Missing 8's are 406

Node ID: 810005243
Total Count of Missing 8's are 407

Node ID: 810005244
Total Count of Missing 8's are 408

Node ID: 810005245
Total Count of Missing 8's are 409

Node ID: 810005260
Total Count of Missing 8's are 410

Node ID: 810005261
Total Count of Missing 8's are 411

Node ID: 810005262
Total Count of Missing 8's are 412

Node ID: 810005263
Total Count of Missing 8's are 413

Node ID: 810005264
Total Count of Missing 8's are 414

Node ID: 810005265
Total Count of Missing 8's are 415

Node ID: 810005280
Total Count of Missing 8's are 416

Node ID: 810005281
Total Count of Missing 8's are 417

Node ID: 810005282
Total Count of Missing 8's are 418

Node ID: 810005283
Total Count of Missing 8's are 419

Node ID: 810005284
Total Count of Missing 8's are 420

Node ID: 810005285
Total Count of Missing 8's are 421

Node ID: 810005300
Total Count of Missing 8's are 422

Node ID: 810005301
Total Count of Missing 8's are 423

Node ID: 810005302
Total Count of Missing 8's are 424

Node ID: 810005303
Total Count of Missing 8's are 425

Node ID: 810005304
Total Count of Missing 8's are 426

Node ID: 810005305
Total Count of Missing 8's are 427

Node ID: 810005320
Total Count of Missing 8's are 427

Node ID: 810005321
Total Count of Missing 8's are 427

Node ID: 810005322
Total Count of Missing 8's are 427

Node ID: 810005323
Total Count of Missing 8's are 427

Node ID: 810005324
Total Count of Missing 8's are 427

Node ID: 810005340
Total Count of Missing 8's are 427

Node ID: 810005341
Total Count of Missing 8's are 427

Node ID: 810005342
Total Count of Missing 8's are 427

Node ID: 810005343
Total Count of Missing 8's are 427

Node ID: 810005344
Total Count of Missing 8's are 428

Node ID: 810005345
Total Count of Missing 8's are 429

Node ID: 810005360
Total Count of Missing 8's are 429

Node ID: 810005361
Total Count of Missing 8's are 429

Node ID: 810005362
Total Count of Missing 8's are 429

Node ID: 810005363
Total Count of Missing 8's are 429

Node ID: 810005364
Total Count of Missing 8's are 430

Node ID: 810005380
Total Count of Missing 8's are 430

Node ID: 810005381
Total Count of Missing 8's are 430

Node ID: 810005382
Total Count of Missing 8's are 430

Node ID: 810005383
Total Count of Missing 8's are 430

Node ID: 810005384
Total Count of Missing 8's are 431

Node ID: 810005385
Total Count of Missing 8's are 432

Node ID: 810005400
Total Count of Missing 8's are 432

Node ID: 810005401
Total Count of Missing 8's are 432

Node ID: 810005403
Total Count of Missing 8's are 432

Node ID: 810005404
Total Count of Missing 8's are 432

Node ID: 810005405
Total Count of Missing 8's are 432

Node ID: 810005406
Total Count of Missing 8's are 432

Node ID: 810005407
Total Count of Missing 8's are 432

Node ID: 810005441
Total Count of Missing 8's are 432

Node ID: 810005442
Total Count of Missing 8's are 432

Node ID: 810005460
Total Count of Missing 8's are 432

Node ID: 810005461
Total Count of Missing 8's are 432

Node ID: 810005462
Total Count of Missing 8's are 432

Node ID: 810005480
Total Count of Missing 8's are 433

Node ID: 810005481
Total Count of Missing 8's are 434

Node ID: 810005482
Total Count of Missing 8's are 434

Node ID: 810005484
Total Count of Missing 8's are 434

Node ID: 810005500
Total Count of Missing 8's are 435

Node ID: 810005501
Total Count of Missing 8's are 436

Node ID: 810005502
Total Count of Missing 8's are 436

Node ID: 810005503
Total Count of Missing 8's are 437

Node ID: 810005504
Total Count of Missing 8's are 437

Node ID: 810005520
Total Count of Missing 8's are 437

Node ID: 810005521
Total Count of Missing 8's are 437

Node ID: 810005522
Total Count of Missing 8's are 437

Node ID: 810005523
Total Count of Missing 8's are 438

Node ID: 810005540
Total Count of Missing 8's are 438

Node ID: 810005541
Total Count of Missing 8's are 439

Node ID: 810005542
Total Count of Missing 8's are 439

Node ID: 810005560
Total Count of Missing 8's are 440

Node ID: 810005561
Total Count of Missing 8's are 441

Node ID: 810005562
Total Count of Missing 8's are 441

Node ID: 810005563
Total Count of Missing 8's are 441

Node ID: 810005580
Total Count of Missing 8's are 442

Node ID: 810005581
Total Count of Missing 8's are 443

Node ID: 810005582
Total Count of Missing 8's are 443

Node ID: 810005583
Total Count of Missing 8's are 443

Node ID: 810005584
Total Count of Missing 8's are 443

Node ID: 810005600
Total Count of Missing 8's are 444

Node ID: 810005601
Total Count of Missing 8's are 445

Node ID: 810005602
Total Count of Missing 8's are 445

Node ID: 810005603
Total Count of Missing 8's are 445

Node ID: 810005620
Total Count of Missing 8's are 446

Node ID: 810005621
Total Count of Missing 8's are 447

Node ID: 810005622
Total Count of Missing 8's are 447

Node ID: 810005623
Total Count of Missing 8's are 447

Node ID: 810005624
Total Count of Missing 8's are 447

Node ID: 810005625
Total Count of Missing 8's are 447

Node ID: 810005640
Total Count of Missing 8's are 447

Node ID: 810005641
Total Count of Missing 8's are 447

Node ID: 810005642
Total Count of Missing 8's are 447

Node ID: 810005643
Total Count of Missing 8's are 447

Node ID: 810005660
Total Count of Missing 8's are 448

Node ID: 810005661
Total Count of Missing 8's are 449

Node ID: 810005662
Total Count of Missing 8's are 449

Node ID: 810005663
Total Count of Missing 8's are 449

Node ID: 810005680
Total Count of Missing 8's are 449

Node ID: 810005681
Total Count of Missing 8's are 449

Node ID: 810005682
Total Count of Missing 8's are 450

Node ID: 810005683
Total Count of Missing 8's are 450

Node ID: 810005700
Total Count of Missing 8's are 450

Node ID: 810005701
Total Count of Missing 8's are 450

Node ID: 810005702
Total Count of Missing 8's are 450

Node ID: 810005720
Total Count of Missing 8's are 450

Node ID: 810005721
Total Count of Missing 8's are 451

Node ID: 810005722
Total Count of Missing 8's are 451

Node ID: 810005723
Total Count of Missing 8's are 452

Node ID: 810005740
Total Count of Missing 8's are 452

Node ID: 810005741
Total Count of Missing 8's are 453

Node ID: 810005742
Total Count of Missing 8's are 453

Node ID: 810005760
Total Count of Missing 8's are 453

Node ID: 810005761
Total Count of Missing 8's are 453

Node ID: 810005762
Total Count of Missing 8's are 453

Node ID: 810005780
Total Count of Missing 8's are 453

Node ID: 810005781
Total Count of Missing 8's are 453

Node ID: 810005782
Total Count of Missing 8's are 453

Node ID: 810005783
Total Count of Missing 8's are 453

Node ID: 810005800
Total Count of Missing 8's are 453

Node ID: 810005801
Total Count of Missing 8's are 453

Node ID: 810005802
Total Count of Missing 8's are 453

Node ID: 810005803
Total Count of Missing 8's are 453

Node ID: 810005820
Total Count of Missing 8's are 453

Node ID: 810005821
Total Count of Missing 8's are 453

Node ID: 810005822
Total Count of Missing 8's are 453

Node ID: 810005840
Total Count of Missing 8's are 453

Node ID: 810005841
Total Count of Missing 8's are 453

Node ID: 810005842
Total Count of Missing 8's are 453

Node ID: 810005860
Total Count of Missing 8's are 453

Node ID: 810005861
Total Count of Missing 8's are 453

Node ID: 810005862
Total Count of Missing 8's are 454

Node ID: 810005880
Total Count of Missing 8's are 454

Node ID: 810005881
Total Count of Missing 8's are 455

Node ID: 810005882
Total Count of Missing 8's are 455

Node ID: 810005900
Total Count of Missing 8's are 455

Node ID: 810005901
Total Count of Missing 8's are 455

Node ID: 810005902
Total Count of Missing 8's are 455

Node ID: 810005920
Total Count of Missing 8's are 455

Node ID: 810005921
Total Count of Missing 8's are 455

Node ID: 810005922
Total Count of Missing 8's are 455

Node ID: 810005940
Total Count of Missing 8's are 455

Node ID: 810005941
Total Count of Missing 8's are 455

Node ID: 810005942
Total Count of Missing 8's are 455

Node ID: 810005943
Total Count of Missing 8's are 455

Node ID: 810005960
Total Count of Missing 8's are 455

Node ID: 810005961
Total Count of Missing 8's are 455

Node ID: 810005962
Total Count of Missing 8's are 455

Node ID: 810005963
Total Count of Missing 8's are 455

Node ID: 810005980
Total Count of Missing 8's are 455

Node ID: 810005981
Total Count of Missing 8's are 455

Node ID: 810005982
Total Count of Missing 8's are 455

Node ID: 810006000
Total Count of Missing 8's are 456

Node ID: 810006001
Total Count of Missing 8's are 457

Node ID: 810006002
Total Count of Missing 8's are 457

Node ID: 810006003
Total Count of Missing 8's are 457

Node ID: 810006020
Total Count of Missing 8's are 458

Node ID: 810006021
Total Count of Missing 8's are 459

Node ID: 810006022
Total Count of Missing 8's are 459

Node ID: 810006023
Total Count of Missing 8's are 459

Node ID: 810006040
Total Count of Missing 8's are 460

Node ID: 810006041
Total Count of Missing 8's are 461

Node ID: 810006042
Total Count of Missing 8's are 461

Node ID: 810006043
Total Count of Missing 8's are 461

Node ID: 810006060
Total Count of Missing 8's are 461

Node ID: 810006061
Total Count of Missing 8's are 461

Node ID: 810006062
Total Count of Missing 8's are 461

Node ID: 810006080
Total Count of Missing 8's are 461

Node ID: 810006081
Total Count of Missing 8's are 461

Node ID: 810006082
Total Count of Missing 8's are 461

Node ID: 810006100
Total Count of Missing 8's are 462

Node ID: 810006101
Total Count of Missing 8's are 463

Node ID: 810006102
Total Count of Missing 8's are 463

Node ID: 810006103
Total Count of Missing 8's are 463

Node ID: 810006120
Total Count of Missing 8's are 464

Node ID: 810006121
Total Count of Missing 8's are 465

Node ID: 810006122
Total Count of Missing 8's are 465

Node ID: 810006123
Total Count of Missing 8's are 465

Node ID: 810006140
Total Count of Missing 8's are 465

Node ID: 810006141
Total Count of Missing 8's are 465

Node ID: 810006142
Total Count of Missing 8's are 465

Node ID: 810006160
Total Count of Missing 8's are 465

Node ID: 810006161
Total Count of Missing 8's are 466

Node ID: 810006162
Total Count of Missing 8's are 466

Node ID: 810006163
Total Count of Missing 8's are 467

Node ID: 810006180
Total Count of Missing 8's are 467

Node ID: 810006181
Total Count of Missing 8's are 467

Node ID: 810006182
Total Count of Missing 8's are 467

Node ID: 810006200
Total Count of Missing 8's are 467

Node ID: 810006203
Total Count of Missing 8's are 467

Node ID: 810006220
Total Count of Missing 8's are 467

Node ID: 810006221
Total Count of Missing 8's are 467

Node ID: 810006222
Total Count of Missing 8's are 467

Node ID: 810006223
Total Count of Missing 8's are 467

Node ID: 810006240
Total Count of Missing 8's are 468

Node ID: 810006241
Total Count of Missing 8's are 468

Node ID: 810006242
Total Count of Missing 8's are 469

Node ID: 810006243
Total Count of Missing 8's are 469

Node ID: 810006260
Total Count of Missing 8's are 469

Node ID: 810006261
Total Count of Missing 8's are 469

Node ID: 810006262
Total Count of Missing 8's are 469

Node ID: 810006263
Total Count of Missing 8's are 469

Node ID: 810006264
Total Count of Missing 8's are 469

Node ID: 810006265
Total Count of Missing 8's are 469

Node ID: 810006280
Total Count of Missing 8's are 470

Node ID: 810006281
Total Count of Missing 8's are 471

Node ID: 810006282
Total Count of Missing 8's are 471

Node ID: 810006283
Total Count of Missing 8's are 471

Node ID: 810006300
Total Count of Missing 8's are 472

Node ID: 810006301
Total Count of Missing 8's are 473

Node ID: 810006302
Total Count of Missing 8's are 473

Node ID: 810006303
Total Count of Missing 8's are 473

Node ID: 810006320
Total Count of Missing 8's are 473

Node ID: 810006321
Total Count of Missing 8's are 473

Node ID: 810006322
Total Count of Missing 8's are 473

Node ID: 810006340
Total Count of Missing 8's are 473

Node ID: 810006341
Total Count of Missing 8's are 473

Node ID: 810006343
Total Count of Missing 8's are 473

Node ID: 810006361
Total Count of Missing 8's are 473

Node ID: 810006362
Total Count of Missing 8's are 473

Node ID: 810006363
Total Count of Missing 8's are 473

Node ID: 810006380
Total Count of Missing 8's are 474

Node ID: 810006381
Total Count of Missing 8's are 475

Node ID: 810006382
Total Count of Missing 8's are 475

Node ID: 810006383
Total Count of Missing 8's are 475

Node ID: 810006400
Total Count of Missing 8's are 475

Node ID: 810006420
Total Count of Missing 8's are 475

Node ID: 810006440
Total Count of Missing 8's are 475

Node ID: 810006441
Total Count of Missing 8's are 475

Node ID: 810006442
Total Count of Missing 8's are 475

Node ID: 810006460
Total Count of Missing 8's are 475

Node ID: 810006480
Total Count of Missing 8's are 475

Node ID: 810006500
Total Count of Missing 8's are 476

Node ID: 810006501
Total Count of Missing 8's are 477

Node ID: 810006502
Total Count of Missing 8's are 477

Node ID: 810006503
Total Count of Missing 8's are 477

Node ID: 810006520
Total Count of Missing 8's are 477

Node ID: 810006521
Total Count of Missing 8's are 477

Node ID: 810006522
Total Count of Missing 8's are 477

Node ID: 810006540
Total Count of Missing 8's are 477

Node ID: 810006541
Total Count of Missing 8's are 477

Node ID: 810006542
Total Count of Missing 8's are 477

Node ID: 810006543
Total Count of Missing 8's are 477

Node ID: 810006562
Total Count of Missing 8's are 477

Node ID: 810006563
Total Count of Missing 8's are 477

Node ID: 810006582
Total Count of Missing 8's are 477

Node ID: 810006583
Total Count of Missing 8's are 477

Node ID: 810006584
Total Count of Missing 8's are 477

Node ID: 810006585
Total Count of Missing 8's are 477

Node ID: 810006600
Total Count of Missing 8's are 477

Node ID: 810006601
Total Count of Missing 8's are 477

Node ID: 810006602
Total Count of Missing 8's are 477

Node ID: 810006603
Total Count of Missing 8's are 477

Node ID: 810006604
Total Count of Missing 8's are 478

Node ID: 810006680
Total Count of Missing 8's are 478

Node ID: 810006681
Total Count of Missing 8's are 478

Node ID: 810006683
Total Count of Missing 8's are 478

Node ID: 810006684
Total Count of Missing 8's are 478

Node ID: 810006685
Total Count of Missing 8's are 478

Node ID: 810006702
Total Count of Missing 8's are 478

Node ID: 810006703
Total Count of Missing 8's are 478

Node ID: 810006720
Total Count of Missing 8's are 478

Node ID: 810006721
Total Count of Missing 8's are 478

Node ID: 810006722
Total Count of Missing 8's are 479

Node ID: 810006740
Total Count of Missing 8's are 480

Node ID: 810006741
Total Count of Missing 8's are 481

Node ID: 810006742
Total Count of Missing 8's are 481

Node ID: 810006743
Total Count of Missing 8's are 481

Node ID: 810006744
Total Count of Missing 8's are 481

Node ID: 810006745
Total Count of Missing 8's are 481

Node ID: 810006760
Total Count of Missing 8's are 482

Node ID: 810006761
Total Count of Missing 8's are 483

Node ID: 810006762
Total Count of Missing 8's are 483

Node ID: 810006763
Total Count of Missing 8's are 483

Node ID: 810006780
Total Count of Missing 8's are 483

Node ID: 810006783
Total Count of Missing 8's are 483

Node ID: 810006801
Total Count of Missing 8's are 483

Node ID: 810006802
Total Count of Missing 8's are 483

Node ID: 810006820
Total Count of Missing 8's are 483

Node ID: 810006821
Total Count of Missing 8's are 483

Node ID: 810006822
Total Count of Missing 8's are 484

Node ID: 810006823
Total Count of Missing 8's are 485

Node ID: 810006824
Total Count of Missing 8's are 485

Node ID: 810006825
Total Count of Missing 8's are 485

Node ID: 810006840
Total Count of Missing 8's are 486

Node ID: 810006841
Total Count of Missing 8's are 487

Node ID: 810006842
Total Count of Missing 8's are 487

Node ID: 810006843
Total Count of Missing 8's are 487

Node ID: 810006860
Total Count of Missing 8's are 487

Node ID: 810006861
Total Count of Missing 8's are 487

Node ID: 810006864
Total Count of Missing 8's are 487

Node ID: 810006865
Total Count of Missing 8's are 487

Node ID: 810006880
Total Count of Missing 8's are 488

Node ID: 810006881
Total Count of Missing 8's are 489

Node ID: 810006882
Total Count of Missing 8's are 490

Node ID: 810006883
Total Count of Missing 8's are 491

Node ID: 810006884
Total Count of Missing 8's are 492

Node ID: 810006885
Total Count of Missing 8's are 493

Node ID: 810006886
Total Count of Missing 8's are 494

Node ID: 810006900
Total Count of Missing 8's are 495

Node ID: 810006901
Total Count of Missing 8's are 496

Node ID: 810006902
Total Count of Missing 8's are 497

Node ID: 810006903
Total Count of Missing 8's are 498

Node ID: 810006904
Total Count of Missing 8's are 499

Node ID: 810006905
Total Count of Missing 8's are 500

Node ID: 810006920
Total Count of Missing 8's are 501

Node ID: 810006921
Total Count of Missing 8's are 502

Node ID: 810006922
Total Count of Missing 8's are 503

Node ID: 810006923
Total Count of Missing 8's are 504

Node ID: 810006924
Total Count of Missing 8's are 505

Node ID: 810006925
Total Count of Missing 8's are 506

Node ID: 810006940
Total Count of Missing 8's are 507

Node ID: 810006941
Total Count of Missing 8's are 508

Node ID: 810006942
Total Count of Missing 8's are 509

Node ID: 810006943
Total Count of Missing 8's are 510

Node ID: 810006944
Total Count of Missing 8's are 511

Node ID: 810006945
Total Count of Missing 8's are 512

Node ID: 810006961
Total Count of Missing 8's are 513

Node ID: 810006963
Total Count of Missing 8's are 513

Node ID: 810006981
Total Count of Missing 8's are 513

Node ID: 810006982
Total Count of Missing 8's are 513

Node ID: 810007000
Total Count of Missing 8's are 513

Node ID: 810007001
Total Count of Missing 8's are 514

Node ID: 810007002
Total Count of Missing 8's are 514

Node ID: 810007022
Total Count of Missing 8's are 514

Node ID: 810007023
Total Count of Missing 8's are 514

Node ID: 810007040
Total Count of Missing 8's are 514

Node ID: 810007042
Total Count of Missing 8's are 514

Node ID: 810007043
Total Count of Missing 8's are 514

Node ID: 810007060
Total Count of Missing 8's are 514

Node ID: 810007063
Total Count of Missing 8's are 514

Node ID: 810007080
Total Count of Missing 8's are 515

Node ID: 810007081
Total Count of Missing 8's are 516

Node ID: 810007084
Total Count of Missing 8's are 516

Node ID: 810007085
Total Count of Missing 8's are 517

Node ID: 810007100
Total Count of Missing 8's are 518

Node ID: 810007101
Total Count of Missing 8's are 519

Node ID: 810007102
Total Count of Missing 8's are 520

Node ID: 810007103
Total Count of Missing 8's are 521

Node ID: 810007120
Total Count of Missing 8's are 522

Node ID: 810007121
Total Count of Missing 8's are 523

Node ID: 810007122
Total Count of Missing 8's are 524

Node ID: 810007123
Total Count of Missing 8's are 525

Node ID: 810007124
Total Count of Missing 8's are 526

Node ID: 810007125
Total Count of Missing 8's are 527

Node ID: 810007140
Total Count of Missing 8's are 527

Node ID: 810007141
Total Count of Missing 8's are 528

Node ID: 810007142
Total Count of Missing 8's are 528

Node ID: 810007162
Total Count of Missing 8's are 529

Node ID: 810007180
Total Count of Missing 8's are 530

Node ID: 810007181
Total Count of Missing 8's are 531

Node ID: 810007182
Total Count of Missing 8's are 532

Node ID: 810007183
Total Count of Missing 8's are 533

Node ID: 810007184
Total Count of Missing 8's are 534

Node ID: 810007185
Total Count of Missing 8's are 535

Node ID: 810007200
Total Count of Missing 8's are 535

Node ID: 810007201
Total Count of Missing 8's are 535

Node ID: 810007202
Total Count of Missing 8's are 535

Node ID: 810007220
Total Count of Missing 8's are 536

Node ID: 810007221
Total Count of Missing 8's are 537

Node ID: 810007222
Total Count of Missing 8's are 537

Node ID: 810007223
Total Count of Missing 8's are 537

Node ID: 810007224
Total Count of Missing 8's are 537

Node ID: 810007260
Total Count of Missing 8's are 537

Node ID: 810007261
Total Count of Missing 8's are 537

Node ID: 810007262
Total Count of Missing 8's are 537

Node ID: 810007263
Total Count of Missing 8's are 537

Node ID: 810007300
Total Count of Missing 8's are 537

Node ID: 810007301
Total Count of Missing 8's are 537

Node ID: 810007302
Total Count of Missing 8's are 537

Node ID: 810007320
Total Count of Missing 8's are 538

Node ID: 810007321
Total Count of Missing 8's are 539

Node ID: 810007322
Total Count of Missing 8's are 539

Node ID: 810007323
Total Count of Missing 8's are 539

Node ID: 810007340
Total Count of Missing 8's are 539

Node ID: 810007341
Total Count of Missing 8's are 539

Node ID: 810007342
Total Count of Missing 8's are 539

Node ID: 810007360
Total Count of Missing 8's are 539

Node ID: 810007361
Total Count of Missing 8's are 539

Node ID: 810007362
Total Count of Missing 8's are 539

Node ID: 810007380
Total Count of Missing 8's are 539

Node ID: 810007381
Total Count of Missing 8's are 539

Node ID: 810007382
Total Count of Missing 8's are 539

Node ID: 810007400
Total Count of Missing 8's are 539

Node ID: 810007401
Total Count of Missing 8's are 539

Node ID: 810007402
Total Count of Missing 8's are 539

Node ID: 810007403
Total Count of Missing 8's are 539

Node ID: 810007420
Total Count of Missing 8's are 540

Node ID: 810007421
Total Count of Missing 8's are 541

Node ID: 810007422
Total Count of Missing 8's are 541

Node ID: 810007423
Total Count of Missing 8's are 541

Node ID: 810007440
Total Count of Missing 8's are 541

Node ID: 810007441
Total Count of Missing 8's are 541

Node ID: 810007442
Total Count of Missing 8's are 542

Node ID: 810007460
Total Count of Missing 8's are 542

Node ID: 810007461
Total Count of Missing 8's are 542

Node ID: 810007462
Total Count of Missing 8's are 542

Node ID: 810007480
Total Count of Missing 8's are 542

Node ID: 810007481
Total Count of Missing 8's are 542

Node ID: 810007482
Total Count of Missing 8's are 542

Node ID: 810007500
Total Count of Missing 8's are 543

Node ID: 810007501
Total Count of Missing 8's are 544

Node ID: 810007504
Total Count of Missing 8's are 544

Node ID: 810007505
Total Count of Missing 8's are 544

Node ID: 810007540
Total Count of Missing 8's are 545

Node ID: 810007541
Total Count of Missing 8's are 546

Node ID: 810007542
Total Count of Missing 8's are 546

Node ID: 810007543
Total Count of Missing 8's are 546

Node ID: 810007560
Total Count of Missing 8's are 546

Node ID: 810007561
Total Count of Missing 8's are 546

Node ID: 810007562
Total Count of Missing 8's are 546

Node ID: 810007563
Total Count of Missing 8's are 546

Node ID: 810007580
Total Count of Missing 8's are 547

Node ID: 810007581
Total Count of Missing 8's are 548

Node ID: 810007582
Total Count of Missing 8's are 548

Node ID: 810007583
Total Count of Missing 8's are 548

Node ID: 810007600
Total Count of Missing 8's are 549

Node ID: 810007601
Total Count of Missing 8's are 550

Node ID: 810007602
Total Count of Missing 8's are 550

Node ID: 810007603
Total Count of Missing 8's are 550

Node ID: 810007620
Total Count of Missing 8's are 550

Node ID: 810007621
Total Count of Missing 8's are 550

Node ID: 810007622
Total Count of Missing 8's are 550

Node ID: 810007640
Total Count of Missing 8's are 550

Node ID: 810007641
Total Count of Missing 8's are 550

Node ID: 810007642
Total Count of Missing 8's are 550

Node ID: 810007660
Total Count of Missing 8's are 551

Node ID: 810007661
Total Count of Missing 8's are 552

Node ID: 810007662
Total Count of Missing 8's are 552

Node ID: 810007663
Total Count of Missing 8's are 552

Node ID: 810007680
Total Count of Missing 8's are 552

Node ID: 810007681
Total Count of Missing 8's are 552

Node ID: 810007682
Total Count of Missing 8's are 552

Node ID: 810007683
Total Count of Missing 8's are 552

Node ID: 810007702
Total Count of Missing 8's are 553

Node ID: 810007703
Total Count of Missing 8's are 554

Node ID: 810007704
Total Count of Missing 8's are 554

Node ID: 810007705
Total Count of Missing 8's are 554

Node ID: 810007720
Total Count of Missing 8's are 554

Node ID: 810007721
Total Count of Missing 8's are 554

Node ID: 810007722
Total Count of Missing 8's are 554

Node ID: 810007740
Total Count of Missing 8's are 554

Node ID: 810007741
Total Count of Missing 8's are 554

Node ID: 810007742
Total Count of Missing 8's are 554

Node ID: 810007760
Total Count of Missing 8's are 555

Node ID: 810007761
Total Count of Missing 8's are 556

Node ID: 810007762
Total Count of Missing 8's are 556

Node ID: 810007763
Total Count of Missing 8's are 556

Node ID: 810007780
Total Count of Missing 8's are 557

Node ID: 810007781
Total Count of Missing 8's are 558

Node ID: 810007782
Total Count of Missing 8's are 558

Node ID: 810007783
Total Count of Missing 8's are 558

Node ID: 810007800
Total Count of Missing 8's are 558

Node ID: 810007801
Total Count of Missing 8's are 559

Node ID: 810007802
Total Count of Missing 8's are 559

Node ID: 810007820
Total Count of Missing 8's are 559

Node ID: 810007821
Total Count of Missing 8's are 559

Node ID: 810007822
Total Count of Missing 8's are 560

Node ID: 810007840
Total Count of Missing 8's are 561

Node ID: 810007841
Total Count of Missing 8's are 562

Node ID: 810007842
Total Count of Missing 8's are 562

Node ID: 810007843
Total Count of Missing 8's are 562

Node ID: 810007860
Total Count of Missing 8's are 562

Node ID: 810007861
Total Count of Missing 8's are 562

Node ID: 810007862
Total Count of Missing 8's are 562

Node ID: 810007880
Total Count of Missing 8's are 563

Node ID: 810007881
Total Count of Missing 8's are 564

Node ID: 810007882
Total Count of Missing 8's are 564

Node ID: 810007883
Total Count of Missing 8's are 564

Node ID: 810007900
Total Count of Missing 8's are 565

Node ID: 810007901
Total Count of Missing 8's are 566

Node ID: 810007902
Total Count of Missing 8's are 566

Node ID: 810007903
Total Count of Missing 8's are 566

Node ID: 810007920
Total Count of Missing 8's are 567

Node ID: 810007921
Total Count of Missing 8's are 568

Node ID: 810007922
Total Count of Missing 8's are 568

Node ID: 810007923
Total Count of Missing 8's are 568

Node ID: 810007940
Total Count of Missing 8's are 568

Node ID: 810007941
Total Count of Missing 8's are 568

Node ID: 810007942
Total Count of Missing 8's are 568

Node ID: 810007960
Total Count of Missing 8's are 569

Node ID: 810007961
Total Count of Missing 8's are 570

Node ID: 810007962
Total Count of Missing 8's are 570

Node ID: 810007963
Total Count of Missing 8's are 570

Node ID: 810007980
Total Count of Missing 8's are 570

Node ID: 810007981
Total Count of Missing 8's are 570

Node ID: 810007982
Total Count of Missing 8's are 570

Node ID: 810007983
Total Count of Missing 8's are 570

Node ID: 810007984
Total Count of Missing 8's are 570

Node ID: 810008000
Total Count of Missing 8's are 571

Node ID: 810008001
Total Count of Missing 8's are 572

Node ID: 810008002
Total Count of Missing 8's are 572

Node ID: 810008003
Total Count of Missing 8's are 572

Node ID: 810008020
Total Count of Missing 8's are 572

Node ID: 810008021
Total Count of Missing 8's are 572

Node ID: 810008022
Total Count of Missing 8's are 572

Node ID: 810008040
Total Count of Missing 8's are 573

Node ID: 810008041
Total Count of Missing 8's are 574

Node ID: 810008042
Total Count of Missing 8's are 574

Node ID: 810008043
Total Count of Missing 8's are 574

Node ID: 810008060
Total Count of Missing 8's are 574

Node ID: 810008061
Total Count of Missing 8's are 574

Node ID: 810008062
Total Count of Missing 8's are 574

Node ID: 810008080
Total Count of Missing 8's are 574

Node ID: 810008081
Total Count of Missing 8's are 574

Node ID: 810008082
Total Count of Missing 8's are 574

Node ID: 810008100
Total Count of Missing 8's are 574

Node ID: 810008101
Total Count of Missing 8's are 574

Node ID: 810008102
Total Count of Missing 8's are 574

Node ID: 810008120
Total Count of Missing 8's are 574

Node ID: 810008121
Total Count of Missing 8's are 574

Node ID: 810008122
Total Count of Missing 8's are 574

Node ID: 810008140
Total Count of Missing 8's are 574

Node ID: 810008141
Total Count of Missing 8's are 574

Node ID: 810008142
Total Count of Missing 8's are 574

Node ID: 810008160
Total Count of Missing 8's are 574

Node ID: 810008161
Total Count of Missing 8's are 574

Node ID: 810008162
Total Count of Missing 8's are 574

Node ID: 810008180
Total Count of Missing 8's are 575

Node ID: 810008181
Total Count of Missing 8's are 576

Node ID: 810008182
Total Count of Missing 8's are 576

Node ID: 810008183
Total Count of Missing 8's are 576

Node ID: 810008200
Total Count of Missing 8's are 576

Node ID: 810008201
Total Count of Missing 8's are 576

Node ID: 810008202
Total Count of Missing 8's are 576

Node ID: 810008224
Total Count of Missing 8's are 576

Node ID: 810008225
Total Count of Missing 8's are 576

Node ID: 810008242
Total Count of Missing 8's are 576

Node ID: 810008243
Total Count of Missing 8's are 576

Node ID: 810008245
Total Count of Missing 8's are 576

Node ID: 810008260
Total Count of Missing 8's are 576

Node ID: 810008261
Total Count of Missing 8's are 576

Node ID: 810008262
Total Count of Missing 8's are 576

Node ID: 810008400
Total Count of Missing 8's are 577

Node ID: 810008401
Total Count of Missing 8's are 578

Node ID: 810008402
Total Count of Missing 8's are 578

Node ID: 810008403
Total Count of Missing 8's are 578

Node ID: 810008460
Total Count of Missing 8's are 578

Node ID: 810008461
Total Count of Missing 8's are 578

Node ID: 810008462
Total Count of Missing 8's are 578

Node ID: 810008463
Total Count of Missing 8's are 578

Node ID: 810008480
Total Count of Missing 8's are 578

Node ID: 810008481
Total Count of Missing 8's are 578

Node ID: 810008482
Total Count of Missing 8's are 578

Node ID: 810008500
Total Count of Missing 8's are 579

Node ID: 810008501
Total Count of Missing 8's are 580

Node ID: 810008502
Total Count of Missing 8's are 580

Node ID: 810008503
Total Count of Missing 8's are 580

Node ID: 810008520
Total Count of Missing 8's are 581

Node ID: 810008521
Total Count of Missing 8's are 582

Node ID: 810008522
Total Count of Missing 8's are 582

